#Command: "C:\Program Files (x86)\Microsoft Visual Studio\2017\Community\VC\Tools\MSVC\14.14.26428\bin\HostX86\x64\link.exe" /ERRORREPORT:PROMPT @C:\Users\neuma\AppData\Local\Temp\tmp8825a6c7b116435797d0e6ef80ad995c.rsp /incremental /nologo /fullbuild
^C:\USERS\NEUMA\STUDIUM\INTERAKTIVE COMPUTERGRAFIK\FRAMEWORK\BUILD\ICG_FRAMEWORK.DIR\DEBUG\APPLICATIONNODEIMPLEMENTATION.OBJ|C:\USERS\NEUMA\STUDIUM\INTERAKTIVE COMPUTERGRAFIK\FRAMEWORK\BUILD\ICG_FRAMEWORK.DIR\DEBUG\COORDINATORNODE.OBJ|C:\USERS\NEUMA\STUDIUM\INTERAKTIVE COMPUTERGRAFIK\FRAMEWORK\BUILD\ICG_FRAMEWORK.DIR\DEBUG\FREECLIPPINGCAMERA.OBJ|C:\USERS\NEUMA\STUDIUM\INTERAKTIVE COMPUTERGRAFIK\FRAMEWORK\BUILD\ICG_FRAMEWORK.DIR\DEBUG\MAIN.OBJ|C:\USERS\NEUMA\STUDIUM\INTERAKTIVE COMPUTERGRAFIK\FRAMEWORK\BUILD\ICG_FRAMEWORK.DIR\DEBUG\SCENE.OBJ|C:\USERS\NEUMA\STUDIUM\INTERAKTIVE COMPUTERGRAFIK\FRAMEWORK\BUILD\ICG_FRAMEWORK.DIR\DEBUG\WORKERNODE.OBJ
C:\USERS\NEUMA\APPDATA\LOCAL\TEMP\LNK{B16DE93E-C658-4618-8641-23ACE09C9E2C}.TMP
